{
  "version": "3.0.0",
  "vulnerabilities": [
    {
      "id": "7b2d8437cd8e22b9e1c69438a1a70090a81a9fee465e026fc6bbb45686e0304f",
      "category": "container_scanning",
      "message": "CVE-2017-15400 in cups",
      "description": "Insufficient restriction of IPP filters in CUPS in Google Chrome OS prior to 62.0.3202.74 allowed a remote attacker to execute a command with the same privileges as the cups daemon via a crafted PPD file, aka a printer zeroconfig CRLF issue.",
      "cve": "debian:9:cups:CVE-2017-15400",
      "severity": "High",
      "confidence": "Unknown",
      "solution": "Upgrade cups from 2.2.1-8+deb9u1 to 2.2.1-8+deb9u2",
      "scanner": {
        "id": "klar",
        "name": "klar"
      },
      "location": {
        "dependency": {
          "package": {
            "name": "cups"
          },
          "version": "2.2.1-8+deb9u1"
        },
        "operating_system": "debian:9",
        "image": "registry.gitlab.com/gitlab-org/security-products/dast/webgoat-8.0@sha256:bc09fe2e0721dfaeee79364115aeedf2174cce0947b9ae5fe7c33312ee019a4e"
      },
      "identifiers": [
        {
          "type": "cve",
          "name": "CVE-2017-15400",
          "value": "CVE-2017-15400",
          "url": "https://cve.mitre.org/cgi-bin/cvename.cgi?name=CVE-2017-15400"
        }
      ],
      "links": [
        {
          "url": "https://security-tracker.debian.org/tracker/CVE-2017-15400"
        }
      ]
    },
    {
      "id": "9f17e764c55e7189ccc4aa42c791721c80c24bcc9b11f6c241340e4b220db203",
      "category": "container_scanning",
      "message": "CVE-2018-4180 in cups",
      "description": "In macOS High Sierra before 10.13.5, an issue existed in CUPS. This issue was addressed with improved access restrictions.",
      "cve": "debian:9:cups:CVE-2018-4180",
      "severity": "Medium",
      "confidence": "Unknown",
      "solution": "Upgrade cups from 2.2.1-8+deb9u1 to 2.2.1-8+deb9u2",
      "scanner": {
        "id": "klar",
        "name": "klar"
      },
      "location": {
        "dependency": {
          "package": {
            "name": "cups"
          },
          "version": "2.2.1-8+deb9u1"
        },
        "operating_system": "debian:9",
        "image": "registry.gitlab.com/gitlab-org/security-products/dast/webgoat-8.0@sha256:bc09fe2e0721dfaeee79364115aeedf2174cce0947b9ae5fe7c33312ee019a4e"
      },
      "identifiers": [
        {
          "type": "cve",
          "name": "CVE-2018-4180",
          "value": "CVE-2018-4180",
          "url": "https://cve.mitre.org/cgi-bin/cvename.cgi?name=CVE-2018-4180"
        }
      ],
      "links": [
        {
          "url": "https://security-tracker.debian.org/tracker/CVE-2018-4180"
        }
      ]
    },
    {
      "id": "4e86125ee929bf85f279cf8a3f0ad221c80d02d3befd523dea0e5f620702b747",
      "category": "container_scanning",
      "message": "CVE-2014-8166 in cups",
      "description": "The browsing feature in the server in CUPS does not filter ANSI escape sequences from shared printer names, which might allow remote attackers to execute arbitrary code via a crafted printer name.",
      "cve": "debian:9:cups:CVE-2014-8166",
      "severity": "Low",
      "confidence": "Unknown",
      "scanner": {
        "id": "klar",
        "name": "klar"
      },
      "location": {
        "dependency": {
          "package": {
            "name": "cups"
          },
          "version": "2.2.1-8+deb9u1"
        },
        "operating_system": "debian:9",
        "image": "registry.gitlab.com/gitlab-org/security-products/dast/webgoat-8.0@sha256:bc09fe2e0721dfaeee79364115aeedf2174cce0947b9ae5fe7c33312ee019a4e"
      },
      "identifiers": [
        {
          "type": "cve",
          "name": "CVE-2014-8166",
          "value": "CVE-2014-8166",
          "url": "https://cve.mitre.org/cgi-bin/cvename.cgi?name=CVE-2014-8166"
        }
      ],
      "links": [
        {
          "url": "https://security-tracker.debian.org/tracker/CVE-2014-8166"
        }
      ]
    },
    {
      "id": "7f6b2f6e5d4884d8016a2365089edb459021bdc60bebc7baf7a8d50e6f650d70",
      "category": "container_scanning",
      "message": "CVE-2017-18248 in cups",
      "description": "The add_job function in scheduler/ipp.c in CUPS before 2.2.6, when D-Bus support is enabled, can be crashed by remote attackers by sending print jobs with an invalid username, related to a D-Bus notification.",
      "cve": "debian:9:cups:CVE-2017-18248",
      "severity": "Low",
      "confidence": "Unknown",
      "solution": "Upgrade cups from 2.2.1-8+deb9u1 to 2.2.1-8+deb9u3",
      "scanner": {
        "id": "klar",
        "name": "klar"
      },
      "location": {
        "dependency": {
          "package": {
            "name": "cups"
          },
          "version": "2.2.1-8+deb9u1"
        },
        "operating_system": "debian:9",
        "image": "registry.gitlab.com/gitlab-org/security-products/dast/webgoat-8.0@sha256:bc09fe2e0721dfaeee79364115aeedf2174cce0947b9ae5fe7c33312ee019a4e"
      },
      "identifiers": [
        {
          "type": "cve",
          "name": "CVE-2017-18248",
          "value": "CVE-2017-18248",
          "url": "https://cve.mitre.org/cgi-bin/cvename.cgi?name=CVE-2017-18248"
        }
      ],
      "links": [
        {
          "url": "https://security-tracker.debian.org/tracker/CVE-2017-18248"
        }
      ]
    },
    {
      "id": "65b760a22ad984e5b6845605976d10a51ab3bf64d52febfaee9720ad03b45d4d",
      "category": "container_scanning",
      "message": "CVE-2019-8696 in cups",
      "description": "cups:2.2.1-8+deb9u1 is affected by CVE-2019-8696",
      "cve": "debian:9:cups:CVE-2019-8696",
      "severity": "Unknown",
      "confidence": "Unknown",
      "scanner": {
        "id": "klar",
        "name": "klar"
      },
      "location": {
        "dependency": {
          "package": {
            "name": "cups"
          },
          "version": "2.2.1-8+deb9u1"
        },
        "operating_system": "debian:9",
        "image": "registry.gitlab.com/gitlab-org/security-products/dast/webgoat-8.0@sha256:bc09fe2e0721dfaeee79364115aeedf2174cce0947b9ae5fe7c33312ee019a4e"
      },
      "identifiers": [
        {
          "type": "cve",
          "name": "CVE-2019-8696",
          "value": "CVE-2019-8696",
          "url": "https://cve.mitre.org/cgi-bin/cvename.cgi?name=CVE-2019-8696"
        }
      ],
      "links": [
        {
          "url": "https://security-tracker.debian.org/tracker/CVE-2019-8696"
        }
      ]
    }
  ],
  "remediations": [
    {
      "fixes": [
        {
          "cve": "debian:9:cups:CVE-2017-15400",
          "id": "7b2d8437cd8e22b9e1c69438a1a70090a81a9fee465e026fc6bbb45686e0304f"
        }
      ],
      "summary": "Upgrade cups from 2.2.1-8+deb9u1 to 2.2.1-8+deb9u2",
      "diff": "LS0tIHRlc3RkYXRhL0RvY2tlcmZpbGUKKysrIHRlc3RkYXRhL0RvY2tlcmZpbGUKQEAgLTM0LDYgKzM0LDcgQEAKIFJVTiBnbyBidWlsZCAtbyAvYW5hbHl6ZXIKIFdPUktESVIgL2dvL3NyYy9naXRodWIuY29tL2NvcmVvcy9jbGFpci8KIEZST00gcmVnaXN0cnkuZ2l0bGFiLmNvbS9naXRsYWItb3JnL3NlY3VyaXR5LXByb2R1Y3RzL2Rhc3Qvd2ViZ29hdC04LjBAc2hhMjU2OmJjMDlmZTJlMDcyMWRmYWVlZTc5MzY0MTE1YWVlZGYyMTc0Y2NlMDk0N2I5YWU1ZmU3YzMzMzEyZWUwMTlhNGUKK1JVTiBhcHQtZ2V0IHVwZGF0ZSAmJiBhcHQtZ2V0IHVwZ3JhZGUgLXkgY3VwcyAmJiBybSAtcmYgL3Zhci9saWIvYXB0L2xpc3RzLyoKICMgdXNlZCB0byBkZXRlcm1pbmUgd2l0aGluIHRoZSBjb250YWluZXIgc2Nhbm5pbmcgYmluYXJ5IHdoZXRoZXIgd2UncmUgcnVubmluZwogIyBmcm9tIHdpdGhpbiB0aGUgY29udGV4dCBvZiBEb2NrZXIKIEVOViBSVU5OSU5HX0ZST01fRE9DS0VSICJ0cnVlIgo="
    },
    {
      "fixes": [
        {
          "cve": "debian:9:cups:CVE-2017-18248",
          "id": "7f6b2f6e5d4884d8016a2365089edb459021bdc60bebc7baf7a8d50e6f650d70"
        }
      ],
      "summary": "Upgrade cups from 2.2.1-8+deb9u1 to 2.2.1-8+deb9u3",
      "diff": "LS0tIHRlc3RkYXRhL0RvY2tlcmZpbGUKKysrIHRlc3RkYXRhL0RvY2tlcmZpbGUKQEAgLTM0LDYgKzM0LDcgQEAKIFJVTiBnbyBidWlsZCAtbyAvYW5hbHl6ZXIKIFdPUktESVIgL2dvL3NyYy9naXRodWIuY29tL2NvcmVvcy9jbGFpci8KIEZST00gcmVnaXN0cnkuZ2l0bGFiLmNvbS9naXRsYWItb3JnL3NlY3VyaXR5LXByb2R1Y3RzL2Rhc3Qvd2ViZ29hdC04LjBAc2hhMjU2OmJjMDlmZTJlMDcyMWRmYWVlZTc5MzY0MTE1YWVlZGYyMTc0Y2NlMDk0N2I5YWU1ZmU3YzMzMzEyZWUwMTlhNGUKK1JVTiBhcHQtZ2V0IHVwZGF0ZSAmJiBhcHQtZ2V0IHVwZ3JhZGUgLXkgY3VwcyAmJiBybSAtcmYgL3Zhci9saWIvYXB0L2xpc3RzLyoKICMgdXNlZCB0byBkZXRlcm1pbmUgd2l0aGluIHRoZSBjb250YWluZXIgc2Nhbm5pbmcgYmluYXJ5IHdoZXRoZXIgd2UncmUgcnVubmluZwogIyBmcm9tIHdpdGhpbiB0aGUgY29udGV4dCBvZiBEb2NrZXIKIEVOViBSVU5OSU5HX0ZST01fRE9DS0VSICJ0cnVlIgo="
    },
    {
      "fixes": [
        {
          "cve": "debian:9:cups:CVE-2018-4180",
          "id": "9f17e764c55e7189ccc4aa42c791721c80c24bcc9b11f6c241340e4b220db203"
        }
      ],
      "summary": "Upgrade cups from 2.2.1-8+deb9u1 to 2.2.1-8+deb9u2",
      "diff": "LS0tIHRlc3RkYXRhL0RvY2tlcmZpbGUKKysrIHRlc3RkYXRhL0RvY2tlcmZpbGUKQEAgLTM0LDYgKzM0LDcgQEAKIFJVTiBnbyBidWlsZCAtbyAvYW5hbHl6ZXIKIFdPUktESVIgL2dvL3NyYy9naXRodWIuY29tL2NvcmVvcy9jbGFpci8KIEZST00gcmVnaXN0cnkuZ2l0bGFiLmNvbS9naXRsYWItb3JnL3NlY3VyaXR5LXByb2R1Y3RzL2Rhc3Qvd2ViZ29hdC04LjBAc2hhMjU2OmJjMDlmZTJlMDcyMWRmYWVlZTc5MzY0MTE1YWVlZGYyMTc0Y2NlMDk0N2I5YWU1ZmU3YzMzMzEyZWUwMTlhNGUKK1JVTiBhcHQtZ2V0IHVwZGF0ZSAmJiBhcHQtZ2V0IHVwZ3JhZGUgLXkgY3VwcyAmJiBybSAtcmYgL3Zhci9saWIvYXB0L2xpc3RzLyoKICMgdXNlZCB0byBkZXRlcm1pbmUgd2l0aGluIHRoZSBjb250YWluZXIgc2Nhbm5pbmcgYmluYXJ5IHdoZXRoZXIgd2UncmUgcnVubmluZwogIyBmcm9tIHdpdGhpbiB0aGUgY29udGV4dCBvZiBEb2NrZXIKIEVOViBSVU5OSU5HX0ZST01fRE9DS0VSICJ0cnVlIgo="
    }
  ],
  "scan": {
    "scanner": {
      "id": "clair",
      "name": "Clair",
      "version": "",
      "vendor": {
        "name": "GitLab"
      },
      "url": "https://github.com/coreos/clair"
    },
    "type": "container_scanning",
    "start_time": "2020-01-25T15:04:05",
    "end_time": "2020-01-25T15:04:05",
    "status": "success"
  }
}
